{
	"id": "882f3661-6539-4769-87df-76e090d2f552",
	"name": "develop",
	"values": [
		{
			"key": "host",
			"value": "http://localhost:5000/api/v1",
			"enabled": true
		},
		{
			"key": "user_token",
			"value": "",
			"enabled": true
		}
	],
	"_postman_variable_scope": "environment",
	"_postman_exported_at": "2020-07-11T19:48:51.975Z",
	"_postman_exported_using": "Postman/7.27.1"
}